[
  {
    "key": "Role_Api",
    "endpointCode": "ApiService",
    "functions": [
      {
        "code": "AddNewRole",
        "patch": "api/role/v1.0.0/add-new-role"
      },
      {
        "code": "GetAllRole",
        "patch": "api/role/v1.0.0/get-all-role"
      },
      {
        "code": "UpdateRole",
        "patch": "api/role/v1.0.0/update-role"
      },
      {
        "code": "GetDetailRole",
        "patch": "api/role/v1.0.0/get-role-detail/{0}"
      }
    ]
  }
]