[
  {
    "key": "User_Api",
    "endpointCode": "ApiService",
    "functions": [
      {
        "code": "CreateNewUser",
        "patch": "api/users/v1.0.0/create-user"
      },
      {
        "code": "GetAllUser",
        "patch": "api/users/v1.0.0/get-all-user"
      },
      {
        "code": "GetDetailUser",
        "patch": "api/users/v1.0.0/get-detail-user/{0}"
      }
    ]
  }
]